…
## Ejemplo

A continuación, se presenta un ejemplo básico para descargar datos desde
SIMEL y simplificar el dataset.

Para ver la lista completa de tablas disponibles, puede usar:

``` r
library(simelcl)

# Imprime en la terminal la lista de indicadores
ver_lista_indicadores(n = 5) # Solo muestra los primeros 5 registros de la tabla.
#> # A tibble: 259 × 5
#>    id_n id             Indicador Nombres                                  Fuente
#>   <int> <chr>          <chr>     <chr>                                    <chr> 
#> 1     1 TP_SEXO        TP        Tasa de participación nacional y region… Encue…
#> 2     2 TP_EDAD        TP        Tasa de participación nacional y region… Encue…
#> 3     3 TP_NACION_SEXO TP        Tasa de participación extranjeros a niv… Encue…
#> 4     4 TOCU_SEXO      TOCU      Tasa de ocupación nacional y regional, … Encue…
#> 5     5 TOCU_EDAD      TOCU      Tasa de ocupación nacional y regional, … Encue…
#> # ℹ 254 more rows
```
…
